proyecto/ejemplos/Hamming/src/build/error.vcd
$date
	Sat Apr 11 21:02:04 2026
$end
$version
	Icarus Verilog
$end
$timescale
	1s
$end
$scope module t_error $end
$var wire 7 ! hamming_con_error [6:0] $end
$var reg 7 " hamming [6:0] $end
$var reg 3 # s [2:0] $end
$scope module uut $end
$var wire 7 $ hamming [6:0] $end
$var wire 7 % hamming_con_error [6:0] $end
$var wire 3 & s [2:0] $end
$var reg 7 ' codigo_hamming [6:0] $end
$upscope $end
$upscope $end
$enddefinitions $end
$comment Show the parameter values. $end
$dumpall
$end
#0
$dumpvars
b1010101 '
b0 &
b1010101 %
b1010101 $
b0 #
b1010101 "
b1010101 !
$end
#10
b1010100 !
b1010100 %
b1010100 '
b1 #
b1 &
#20
b1010111 !
b1010111 %
b1010111 '
b10 #
b10 &
#30
b1010001 !
b1010001 %
b1010001 '
b11 #
b11 &
#40
b1011101 !
b1011101 %
b1011101 '
b100 #
b100 &
#50
b1000101 !
b1000101 %
b1000101 '
b101 #
b101 &
#60
b1110101 !
b1110101 %
b1110101 '
b110 #
b110 &
#70
b10101 !
b10101 %
b10101 '
b111 #
b111 &
#80
b1010111 !
b1010111 %
b1010111 '
b0 #
b0 &
b1010111 "
b1010111 $
#90
b1010110 !
b1010110 %
b1010110 '
b1 #
b1 &
#100
b1010101 !
b1010101 %
b1010101 '
b10 #
b10 &
#110
b1010011 !
b1010011 %
b1010011 '
b11 #
b11 &
#120
b1011111 !
b1011111 %
b1011111 '
b100 #
b100 &
#130
b1000111 !
b1000111 %
b1000111 '
b101 #
b101 &
#140
b1110111 !
b1110111 %
b1110111 '
b110 #
b110 &
#150
b10111 !
b10111 %
b10111 '
b111 #
b111 &
#160
b1110101 !
b1110101 %
b1110101 '
b0 #
b0 &
b1110101 "
b1110101 $
#170
b1110100 !
b1110100 %
b1110100 '
b1 #
b1 &
#180
b1110111 !
b1110111 %
b1110111 '
b10 #
b10 &
#190
b1110001 !
b1110001 %
b1110001 '
b11 #
b11 &
#200
b1111101 !
b1111101 %
b1111101 '
b100 #
b100 &
#210
b1100101 !
b1100101 %
b1100101 '
b101 #
b101 &
#220
b1010101 !
b1010101 %
b1010101 '
b110 #
b110 &
#230
b110101 !
b110101 %
b110101 '
b111 #
b111 &
